[
  {
    "id": 101401,
    "mainCoopCfg": "Coop101401",
    "mainQuestSeries": 101401
  },
  {
    "id": 103601,
    "mainCoopCfg": "Coop103601",
    "mainQuestSeries": 103601
  },
  {
    "id": 103201,
    "mainCoopCfg": "Coop103201",
    "mainQuestSeries": 103201
  },
  {
    "id": 103401,
    "mainCoopCfg": "Coop103401",
    "mainQuestSeries": 103401
  },
  {
    "id": 103901,
    "mainCoopCfg": "Coop103901",
    "mainQuestSeries": 103901
  },
  {
    "id": 103402,
    "mainCoopCfg": "Coop103402",
    "mainQuestSeries": 103402
  },
  {
    "id": 105001,
    "mainCoopCfg": "Coop105001",
    "mainQuestSeries": 105001
  },
  {
    "id": 105301,
    "mainCoopCfg": "Coop105301",
    "mainQuestSeries": 105301
  },
  {
    "id": 105501,
    "mainCoopCfg": "Coop105501",
    "mainQuestSeries": 105501
  },
  {
    "id": 102401,
    "mainCoopCfg": "Coop102401",
    "mainQuestSeries": 102401
  },
  {
    "id": 102701,
    "mainCoopCfg": "Coop102701",
    "mainQuestSeries": 102701
  },
  {
    "id": 106401,
    "mainCoopCfg": "Coop106401",
    "mainQuestSeries": 106401
  },
  {
    "id": 106501,
    "mainCoopCfg": "Coop106501",
    "mainQuestSeries": 106501
  },
  {
    "id": 101501,
    "mainCoopCfg": "Coop101501",
    "mainQuestSeries": 101501
  },
  {
    "id": 105901,
    "mainCoopCfg": "Coop105901",
    "mainQuestSeries": 105901
  },
  {
    "id": 107401,
    "mainCoopCfg": "Coop107401",
    "mainQuestSeries": 107401,
    "AKPEOFKDIDG": "COOP_VALUE_UI_PRESSURE",
    "DLKDJDHGMPA": 10000074
  },
  {
    "id": 107601,
    "mainCoopCfg": "Coop107601",
    "mainQuestSeries": 107601
  },
  {
    "id": 108101,
    "mainCoopCfg": "Coop108101",
    "mainQuestSeries": 108101,
    "DLKDJDHGMPA": 10000081
  }
]